polypoly package overview
…
This package provides some helpful functions for working with these
matrices.

Examples

Tidying

This package provides a tidying function
poly_melt().

library(polypoly)
xs <- 1:40
poly_mat <- poly(xs, degree = 5)
poly_melt(poly_mat)
#> # A tibble: 200 × 3
#>    observation degree  value
#>          <int> <chr>   <dbl>
#>  1           1 1      -0.267
#>  2           2 1      -0.253
#>  3           3 1      -0.240
#>  4           4 1      -0.226
#>  5           5 1      -0.212
#>  6           6 1      -0.199
#>  7           7 1      -0.185
#>  8           8 1      -0.171
#>  9           9 1      -0.158
#> 10          10 1      -0.144
#> # … with 190 more rows
…
For total customization, poly_plot_data() will return
the dataframe that would have been plotted by
poly_plot().

poly_plot_data(poly_mat, by_observation = FALSE)
#> # A tibble: 200 × 4
#>    observation degree   value `degree 1`
#>          <int> <fct>    <dbl>      <dbl>
#>  1           1 1      -0.267      -0.267
#>  2           1 2       0.328      -0.267
#>  3           1 3      -0.360      -0.267
#>  4           1 4       0.369      -0.267
#>  5           1 5      -0.360      -0.267
#>  6           2 5      -0.0831     -0.253
#>  7           2 1      -0.253      -0.253
#>  8           2 2       0.278      -0.253
#>  9           2 3      -0.249      -0.253
#> 10           2 4       0.180      -0.253
#> # … with 190 more rows
…
Adding columns to a dataframe

poly_add_columns() adds orthogonal polynomial
transformations of a predictor variable to a dataframe.

Here’s how we could add polynomials to the sleepstudy
dataset.

df <- tibble::as_tibble(lme4::sleepstudy)
print(df)
#> # A tibble: 180 × 3
#>    Reaction  Days Subject
#>       <dbl> <dbl> <fct>  
#>  1     250.     0 308    
#>  2     259.     1 308    
#>  3     251.     2 308    
#>  4     321.     3 308    
#>  5     357.     4 308    
#>  6     415.     5 308    
#>  7     382.     6 308    
#>  8     290.     7 308    
#>  9     431.     8 308    
#> 10     466.     9 308    
#> # … with 170 more rows

poly_add_columns(df, Days, degree = 3)
#> # A tibble: 180 × 6
#>    Reaction  Days Subject   Days1   Days2  Days3
#>       <dbl> <dbl> <fct>     <dbl>   <dbl>  <dbl>
#>  1     250.     0 308     -0.495   0.522  -0.453
#>  2     259.     1 308     -0.385   0.174   0.151
#>  3     251.     2 308     -0.275  -0.0870  0.378
#>  4     321.     3 308     -0.165  -0.261   0.335
#>  5     357.     4 308     -0.0550 -0.348   0.130
#>  6     415.     5 308      0.0550 -0.348  -0.130
#>  7     382.     6 308      0.165  -0.261  -0.335
#>  8     290.     7 308      0.275  -0.0870 -0.378
#>  9     431.     8 308      0.385   0.174  -0.151
#> 10     466.     9 308      0.495   0.522   0.453
#> # … with 170 more rows

We can optionally customize the column names and rescale the
polynomial terms.

poly_add_columns(df, Days, degree = 3, prefix = "poly_", scale_width = 1)
#> # A tibble: 180 × 6
#>    Reaction  Days Subject  poly_1  poly_2 poly_3
#>       <dbl> <dbl> <fct>     <dbl>   <dbl>  <dbl>
#>  1     250.     0 308     -0.5     0.527  -0.458
#>  2     259.     1 308     -0.389   0.176   0.153
#>  3     251.     2 308     -0.278  -0.0878  0.381
#>  4     321.     3 308     -0.167  -0.264   0.338
#>  5     357.     4 308     -0.0556 -0.351   0.131
#>  6     415.     5 308      0.0556 -0.351  -0.131
#>  7     382.     6 308      0.167  -0.264  -0.338
#>  8     290.     7 308      0.278  -0.0878 -0.381
#>  9     431.     8 308      0.389   0.176  -0.153
#> 10     466.     9 308      0.5     0.527   0.458
#> # … with 170 more rows
…
This section illustrates a use case that may or may not be included
in the package someday: Visualizing the weighting of polynomial terms
from a linear model. For now, here’s how to do that task with this
package.

Suppose we want to model some change over time using a cubic
polynomial. For example, the growth of trees.

library(lme4)
#> Loading required package: Matrix
df <- tibble::as_tibble(Orange)
df$Tree <- as.character(df$Tree)
df
#> # A tibble: 35 × 3
#>    Tree    age circumference
#>    <chr> <dbl>         <dbl>
#>  1 1       118            30
#>  2 1       484            58
#>  3 1       664            87
#>  4 1      1004           115
#>  5 1      1231           120
#>  6 1      1372           142
#>  7 1      1582           145
#>  8 2       118            33
#>  9 2       484            69
#> 10 2       664           111
#> # … with 25 more rows
…
